{
  "project": {
    "current_target": "nucleo", 
    "name": "nucleousb", 
    "build_dir": "build"
  }, 
  "targets": {
    "nucleo": {
      "cppflags": [], 
      "exclude_dirs": [], 
      "toolchain": "arm", 
      "ldflags": [
        "-mcpu=cortex-m4 -mthumb -Wl,--gc-sections --specs=nosys.specs --specs=nano.specs -T../../STM32L476RGTx_FLASH.ld"
      ], 
      "asflags": [], 
      "target_post_rule": [], 
      "undefines": [], 
      "cflags": [
        "-Werror -Wall -g3 -ggdb -mcpu=cortex-m4 -mthumb -std=gnu99", 
        "-fdata-sections", 
        "-ffunction-sections", 
        "-fmessage-length=0"
      ], 
      "libs": [
        "-lnosys"
      ], 
      "include_dirs": [], 
      "defines": [
        "STM32L476xx", 
        "USE_HAL_DRIVER", 
        "__packed=\"__attribute__((__packed__))\""
      ]
    }
  }, 
  "toolchains": {
    "arm": {
      "bin": "/opt/toolchains/gcc-arm-none-eabi-4_9-2014q4/bin/", 
      "dvipdf": "dvipdf", 
      "git": "git", 
      "texcompile": "latex", 
      "cc": "/opt/toolchains/gcc-arm-none-eabi-4_9-2014q4/bin/arm-none-eabi-gcc", 
      "objdump": "/opt/toolchains/gcc-arm-none-eabi-4_9-2014q4/bin/arm-none-eabi-objdump", 
      "linker": "/opt/toolchains/gcc-arm-none-eabi-4_9-2014q4/bin/arm-none-eabi-gcc", 
      "objcopy_args": [
        "-O", 
        "$(FILE_NO_PREFIX).s19"
      ], 
      "sys_includes": [], 
      "pkgconfig": "/opt/toolchains/gcc-arm-none-eabi-4_9-2014q4/bin/pkg-config", 
      "platform": "arm", 
      "prefix": "arm-none-eabi-", 
      "astyle_flags": "", 
      "cpp": "/opt/toolchains/gcc-arm-none-eabi-4_9-2014q4/bin/arm-none-eabi-g++", 
      "astyle": "echo", 
      "objcopy": "/opt/toolchains/gcc-arm-none-eabi-4_9-2014q4/bin/arm-none-eabi-objcopy", 
      "as": "/opt/toolchains/gcc-arm-none-eabi-4_9-2014q4/bin/arm-none-eabi-as", 
      "size": "/opt/toolchains/gcc-arm-none-eabi-4_9-2014q4/bin/arm-none-eabi-size"
    }
  }
}